# Alias OBJ Model File
# Exported from SketchUp, (c) 2000-2012 Trimble Navigation Limited
# File units = meters

mtllib lvl13.mtl

g Mesh1 Model

usemtl FrontColor
v -1.44382e-015 1 -0.1
vt -3.93701 39.3701
vn -1 -1.44382e-015 -0
v 0 0 -0
vt 0 0
v -1.44382e-015 1 -0
vt 0 39.3701
f 1/1/1 2/2/1 3/3/1

v 0 0 -0.1
vt -3.93701 0
f 2/2/1 1/1/1 4/4/1

vt 5.68434e-014 39.3701
vn 0 0 -1
v 5 0 -0.1
vt -196.85 0
f 1/5/2 5/6/2 4/2/2

v 5 1 -0.1
vt -196.85 39.3701
f 5/6/2 1/5/2 6/7/2

vt -5.93941e-014 3.93701
vn 6.47869e-017 1 -4.52392e-032
v 5 1 -0
vt 196.85 -1.78107e-030
vt 196.85 3.93701
f 1/8/3 7/9/3 6/10/3

vt -5.93941e-014 -1.78107e-030
f 7/9/3 1/8/3 3/11/3

vn 0 0 1
vt 196.85 39.3701
vt -5.68434e-014 39.3701
f 2/2/4 7/12/4 3/13/4

v 5 0 -0
vt 196.85 0
f 7/12/4 2/2/4 8/14/4

vn 0 -1 -0
vt -196.85 3.93701
f 2/2/5 5/15/5 8/6/5

vt 0 3.93701
f 5/15/5 2/2/5 4/16/5

vt 3.93701 0
vn 1 0 -0
f 5/17/6 7/3/6 8/2/6

vt 3.93701 39.3701
f 7/3/6 5/17/6 6/18/6

g Mesh2 Model

v 12 5 -0
vt 472.441 196.85
v 10 4.5 -0
vt 393.701 177.165
v 12 4.5 -0
vt 472.441 177.165
f 9/19/4 10/20/4 11/21/4

v 10 5 -0
vt 393.701 196.85
f 10/20/4 9/19/4 12/22/4

vt 472.441 0
vn 0 1 -0
v 10 5 -0.1
vt 393.701 3.93701
vt 393.701 0
f 9/23/7 13/24/7 12/25/7

v 12 5 -0.1
vt 472.441 3.93701
f 13/24/7 9/23/7 14/26/7

vt 0 196.85
v 12 4.5 -0.1
vt 3.93701 177.165
vt 3.93701 196.85
f 9/27/6 15/28/6 14/29/6

vt 0 177.165
f 15/28/6 9/27/6 11/30/6

vt -393.701 0
vt -472.441 3.93701
vt -472.441 0
f 10/31/5 15/32/5 11/33/5

v 10 4.5 -0.1
vt -393.701 3.93701
f 15/32/5 10/31/5 16/34/5

vn -1 0 -0
vt -3.93701 196.85
vt -3.93701 177.165
f 10/30/8 13/35/8 16/36/8

f 13/35/8 10/30/8 12/27/8

vt -393.701 196.85
vt -472.441 177.165
vt -393.701 177.165
f 13/37/2 15/38/2 16/39/2

vt -472.441 196.85
f 15/38/2 13/37/2 14/40/2

g Mesh3 Model

v 13 5 -0.1
vt -511.811 196.85
v 14 4.5 -0.1
vt -551.181 177.165
v 13 4.5 -0.1
vt -511.811 177.165
f 17/41/2 18/42/2 19/43/2

v 14 5 -0.1
vt -551.181 196.85
f 18/42/2 17/41/2 20/44/2

vt 511.811 3.93701
v 14 5 7.21911e-016
vt 551.181 -2.84217e-014
vt 551.181 3.93701
f 17/45/7 21/46/7 20/47/7

v 13 5 7.21911e-016
vt 511.811 -2.84217e-014
f 21/46/7 17/45/7 22/48/7

v 13 4.5 7.21911e-016
vt 2.84217e-014 177.165
vt 2.84217e-014 196.85
f 17/35/8 23/49/8 22/50/8

f 23/49/8 17/35/8 19/36/8

vt -551.181 3.93701
vt -511.811 -2.84217e-014
vt -511.811 3.93701
f 18/51/5 23/52/5 19/53/5

v 14 4.5 7.21911e-016
vt -551.181 -2.84217e-014
f 23/52/5 18/51/5 24/54/5

vt -2.84217e-014 196.85
vt -2.84217e-014 177.165
f 18/28/6 21/55/6 24/56/6

f 21/55/6 18/28/6 20/29/6

vt 551.181 196.85
vt 511.811 177.165
vt 551.181 177.165
f 21/57/4 23/58/4 24/59/4

vt 511.811 196.85
f 23/58/4 21/57/4 22/60/4

g Mesh4 Model

v 15 5 -0.1
vt -590.551 196.85
v 16 4.5 -0.1
vt -629.921 177.165
v 15 4.5 -0.1
vt -590.551 177.165
f 25/61/2 26/62/2 27/63/2

v 16 5 -0.1
vt -629.921 196.85
f 26/62/2 25/61/2 28/64/2

vt 590.551 3.93701
v 16 5 -4.51195e-016
vt 629.921 1.77636e-014
vt 629.921 3.93701
f 25/65/7 29/66/7 28/67/7

v 15 5 -4.51195e-016
vt 590.551 1.77636e-014
f 29/66/7 25/65/7 30/68/7

v 15 4.5 -4.51195e-016
vt -1.77636e-014 177.165
vt -1.77636e-014 196.85
f 25/35/8 31/69/8 30/70/8

f 31/69/8 25/35/8 27/36/8

vt -629.921 3.93701
vt -590.551 1.77636e-014
vt -590.551 3.93701
f 26/71/5 31/72/5 27/73/5

v 16 4.5 -4.51195e-016
vt -629.921 1.77636e-014
f 31/72/5 26/71/5 32/74/5

vt 1.77636e-014 196.85
vt 1.77636e-014 177.165
f 26/28/6 29/75/6 32/76/6

f 29/75/6 26/28/6 28/29/6

vt 629.921 196.85
vt 590.551 177.165
vt 629.921 177.165
f 29/77/4 31/78/4 32/79/4

vt 590.551 196.85
f 31/78/4 29/77/4 30/80/4

g Mesh5 Model

v 17 5 -0.1
vt -669.291 196.85
v 18 4.5 -0.1
vt -708.661 177.165
v 17 4.5 -0.1
vt -669.291 177.165
f 33/81/2 34/82/2 35/83/2

v 18 5 -0.1
vt -708.661 196.85
f 34/82/2 33/81/2 36/84/2

vt 669.291 3.93701
v 18 5 -7.21911e-016
vt 708.661 2.84217e-014
vt 708.661 3.93701
f 33/85/7 37/86/7 36/87/7

v 17 5 -7.21911e-016
vt 669.291 2.84217e-014
f 37/86/7 33/85/7 38/88/7

v 17 4.5 -7.21911e-016
f 33/35/8 39/56/8 38/55/8

f 39/56/8 33/35/8 35/36/8

vt -708.661 3.93701
vt -669.291 2.84217e-014
vt -669.291 3.93701
f 34/89/5 39/90/5 35/91/5

v 18 4.5 -7.21911e-016
vt -708.661 2.84217e-014
f 39/90/5 34/89/5 40/92/5

f 34/28/6 37/50/6 40/49/6

f 37/50/6 34/28/6 36/29/6

vt 708.661 196.85
vt 669.291 177.165
vt 708.661 177.165
f 37/93/4 39/94/4 40/95/4

vt 669.291 196.85
f 39/94/4 37/93/4 38/96/4

