# Alias OBJ Model File
# Exported from SketchUp, (c) 2000-2012 Trimble Navigation Limited
# File units = meters

mtllib lvl12.mtl

g Mesh1 Model

usemtl FrontColor
v -1.44382e-015 1 -0.1
vt -3.93701 39.3701
vn -1 -1.44382e-015 -0
v 0 0 -0
vt 0 0
v -1.44382e-015 1 -0
vt 0 39.3701
f 1/1/1 2/2/1 3/3/1

v 0 0 -0.1
vt -3.93701 0
f 2/2/1 1/1/1 4/4/1

vt 5.68434e-014 39.3701
vn 0 0 -1
v 5 0 -0.1
vt -196.85 0
f 1/5/2 5/6/2 4/2/2

v 5 1 -0.1
vt -196.85 39.3701
f 5/6/2 1/5/2 6/7/2

vt -5.93941e-014 3.93701
vn 6.47869e-017 1 -4.52392e-032
v 5 1 -0
vt 196.85 -1.78107e-030
vt 196.85 3.93701
f 1/8/3 7/9/3 6/10/3

vt -5.93941e-014 -1.78107e-030
f 7/9/3 1/8/3 3/11/3

vn 0 0 1
vt 196.85 39.3701
vt -5.68434e-014 39.3701
f 2/2/4 7/12/4 3/13/4

v 5 0 -0
vt 196.85 0
f 7/12/4 2/2/4 8/14/4

vn 0 -1 -0
vt -196.85 3.93701
f 2/2/5 5/15/5 8/6/5

vt 0 3.93701
f 5/15/5 2/2/5 4/16/5

vt 3.93701 0
vn 1 0 -0
f 5/17/6 7/3/6 8/2/6

vt 3.93701 39.3701
f 7/3/6 5/17/6 6/18/6

g Mesh2 Model

v 6 2 -0
vt 236.22 78.7402
v 5.5 1.5 -0
vt 216.535 59.0551
v 6 1.5 -0
vt 236.22 59.0551
f 9/19/4 10/20/4 11/21/4

v 5.5 2 -0
vt 216.535 78.7402
f 10/20/4 9/19/4 12/22/4

vt 236.22 0
vn 0 1 -0
v 5.5 2 -0.1
vt 216.535 3.93701
vt 216.535 0
f 9/23/7 13/24/7 12/25/7

v 6 2 -0.1
vt 236.22 3.93701
f 13/24/7 9/23/7 14/26/7

vt 0 78.7402
v 6 1.5 -0.1
vt 3.93701 59.0551
vt 3.93701 78.7402
f 9/27/6 15/28/6 14/29/6

vt 0 59.0551
f 15/28/6 9/27/6 11/30/6

vt -216.535 0
vt -236.22 3.93701
vt -236.22 0
f 10/31/5 15/32/5 11/33/5

v 5.5 1.5 -0.1
vt -216.535 3.93701
f 15/32/5 10/31/5 16/34/5

vn -1 0 -0
vt -3.93701 78.7402
vt -3.93701 59.0551
f 10/30/8 13/35/8 16/36/8

f 13/35/8 10/30/8 12/27/8

vt -216.535 78.7402
vt -236.22 59.0551
vt -216.535 59.0551
f 13/37/2 15/38/2 16/39/2

vt -236.22 78.7402
f 15/38/2 13/37/2 14/40/2

g Mesh3 Model

v 7 3 -0
vt 275.591 118.11
v 6.5 2.5 -0
vt 255.906 98.4252
v 7 2.5 -0
vt 275.591 98.4252
f 17/41/4 18/42/4 19/43/4

v 6.5 3 -0
vt 255.906 118.11
f 18/42/4 17/41/4 20/44/4

vt 275.591 0
v 6.5 3 -0.1
vt 255.906 3.93701
vt 255.906 0
f 17/45/7 21/46/7 20/47/7

v 7 3 -0.1
vt 275.591 3.93701
f 21/46/7 17/45/7 22/48/7

vt 0 118.11
v 7 2.5 -0.1
vt 3.93701 98.4252
vt 3.93701 118.11
f 17/49/6 23/50/6 22/51/6

vt 0 98.4252
f 23/50/6 17/49/6 19/52/6

vt -255.906 0
vt -275.591 3.93701
vt -275.591 0
f 18/53/5 23/54/5 19/55/5

v 6.5 2.5 -0.1
vt -255.906 3.93701
f 23/54/5 18/53/5 24/56/5

vt -3.93701 118.11
vt -3.93701 98.4252
f 18/52/8 21/57/8 24/58/8

f 21/57/8 18/52/8 20/49/8

vt -255.906 118.11
vt -275.591 98.4252
vt -255.906 98.4252
f 21/59/2 23/60/2 24/61/2

vt -275.591 118.11
f 23/60/2 21/59/2 22/62/2

g Mesh4 Model

v 8 4 -0
vt 314.961 157.48
v 7.5 3.5 -0
vt 295.276 137.795
v 8 3.5 -0
vt 314.961 137.795
f 25/63/4 26/64/4 27/65/4

v 7.5 4 -0
vt 295.276 157.48
f 26/64/4 25/63/4 28/66/4

vt 314.961 0
v 7.5 4 -0.1
vt 295.276 3.93701
vt 295.276 0
f 25/67/7 29/68/7 28/69/7

v 8 4 -0.1
vt 314.961 3.93701
f 29/68/7 25/67/7 30/70/7

vt 0 157.48
v 8 3.5 -0.1
vt 3.93701 137.795
vt 3.93701 157.48
f 25/71/6 31/72/6 30/73/6

vt 0 137.795
f 31/72/6 25/71/6 27/74/6

vt -295.276 0
vt -314.961 3.93701
vt -314.961 0
f 26/75/5 31/76/5 27/77/5

v 7.5 3.5 -0.1
vt -295.276 3.93701
f 31/76/5 26/75/5 32/78/5

vt -3.93701 157.48
vt -3.93701 137.795
f 26/74/8 29/79/8 32/80/8

f 29/79/8 26/74/8 28/71/8

vt -295.276 157.48
vt -314.961 137.795
vt -295.276 137.795
f 29/81/2 31/82/2 32/83/2

vt -314.961 157.48
f 31/82/2 29/81/2 30/84/2

g Mesh5 Model

v 12 5 -0
vt 472.441 196.85
v 8.5 4.5 -0
vt 334.646 177.165
v 12 4.5 -0
vt 472.441 177.165
f 33/85/4 34/86/4 35/87/4

v 8.5 5 -0
vt 334.646 196.85
f 34/86/4 33/85/4 36/88/4

vt 472.441 0
v 8.5 5 -0.1
vt 334.646 3.93701
vt 334.646 0
f 33/89/7 37/90/7 36/91/7

v 12 5 -0.1
vt 472.441 3.93701
f 37/90/7 33/89/7 38/92/7

vt 0 196.85
v 12 4.5 -0.1
vt 3.93701 177.165
vt 3.93701 196.85
f 33/93/6 39/94/6 38/95/6

vt 0 177.165
f 39/94/6 33/93/6 35/96/6

vt -334.646 0
vt -472.441 3.93701
vt -472.441 0
f 34/97/5 39/98/5 35/99/5

v 8.5 4.5 -0.1
vt -334.646 3.93701
f 39/98/5 34/97/5 40/100/5

vt -3.93701 196.85
vt -3.93701 177.165
f 34/96/8 37/101/8 40/102/8

f 37/101/8 34/96/8 36/93/8

vt -334.646 196.85
vt -472.441 177.165
vt -334.646 177.165
f 37/103/2 39/104/2 40/105/2

vt -472.441 196.85
f 39/104/2 37/103/2 38/106/2

g Mesh6 Model

v 13 5 -0.1
vt -511.811 196.85
v 14 4.5 -0.1
vt -551.181 177.165
v 13 4.5 -0.1
vt -511.811 177.165
f 41/107/2 42/108/2 43/109/2

v 14 5 -0.1
vt -551.181 196.85
f 42/108/2 41/107/2 44/110/2

vt 511.811 3.93701
v 14 5 7.21911e-016
vt 551.181 -2.84217e-014
vt 551.181 3.93701
f 41/111/7 45/112/7 44/113/7

v 13 5 7.21911e-016
vt 511.811 -2.84217e-014
f 45/112/7 41/111/7 46/114/7

v 13 4.5 7.21911e-016
vt 2.84217e-014 177.165
vt 2.84217e-014 196.85
f 41/101/8 47/115/8 46/116/8

f 47/115/8 41/101/8 43/102/8

vt -551.181 3.93701
vt -511.811 -2.84217e-014
vt -511.811 3.93701
f 42/117/5 47/118/5 43/119/5

v 14 4.5 7.21911e-016
vt -551.181 -2.84217e-014
f 47/118/5 42/117/5 48/120/5

vt -2.84217e-014 196.85
vt -2.84217e-014 177.165
f 42/94/6 45/121/6 48/122/6

f 45/121/6 42/94/6 44/95/6

vt 551.181 196.85
vt 511.811 177.165
vt 551.181 177.165
f 45/123/4 47/124/4 48/125/4

vt 511.811 196.85
f 47/124/4 45/123/4 46/126/4

g Mesh7 Model

v 15 5 -0.1
vt -590.551 196.85
v 16 4.5 -0.1
vt -629.921 177.165
v 15 4.5 -0.1
vt -590.551 177.165
f 49/127/2 50/128/2 51/129/2

v 16 5 -0.1
vt -629.921 196.85
f 50/128/2 49/127/2 52/130/2

vt 590.551 3.93701
v 16 5 -4.51195e-016
vt 629.921 1.77636e-014
vt 629.921 3.93701
f 49/131/7 53/132/7 52/133/7

v 15 5 -4.51195e-016
vt 590.551 1.77636e-014
f 53/132/7 49/131/7 54/134/7

v 15 4.5 -4.51195e-016
vt -1.77636e-014 177.165
vt -1.77636e-014 196.85
f 49/101/8 55/135/8 54/136/8

f 55/135/8 49/101/8 51/102/8

vt -629.921 3.93701
vt -590.551 1.77636e-014
vt -590.551 3.93701
f 50/137/5 55/138/5 51/139/5

v 16 4.5 -4.51195e-016
vt -629.921 1.77636e-014
f 55/138/5 50/137/5 56/140/5

vt 1.77636e-014 196.85
vt 1.77636e-014 177.165
f 50/94/6 53/141/6 56/142/6

f 53/141/6 50/94/6 52/95/6

vt 629.921 196.85
vt 590.551 177.165
vt 629.921 177.165
f 53/143/4 55/144/4 56/145/4

vt 590.551 196.85
f 55/144/4 53/143/4 54/146/4

g Mesh8 Model

v 17 5 -0.1
vt -669.291 196.85
v 18 4.5 -0.1
vt -708.661 177.165
v 17 4.5 -0.1
vt -669.291 177.165
f 57/147/2 58/148/2 59/149/2

v 18 5 -0.1
vt -708.661 196.85
f 58/148/2 57/147/2 60/150/2

vt 669.291 3.93701
v 18 5 -7.21911e-016
vt 708.661 2.84217e-014
vt 708.661 3.93701
f 57/151/7 61/152/7 60/153/7

v 17 5 -7.21911e-016
vt 669.291 2.84217e-014
f 61/152/7 57/151/7 62/154/7

v 17 4.5 -7.21911e-016
f 57/101/8 63/122/8 62/121/8

f 63/122/8 57/101/8 59/102/8

vt -708.661 3.93701
vt -669.291 2.84217e-014
vt -669.291 3.93701
f 58/155/5 63/156/5 59/157/5

v 18 4.5 -7.21911e-016
vt -708.661 2.84217e-014
f 63/156/5 58/155/5 64/158/5

f 58/94/6 61/116/6 64/115/6

f 61/116/6 58/94/6 60/95/6

vt 708.661 196.85
vt 669.291 177.165
vt 708.661 177.165
f 61/159/4 63/160/4 64/161/4

vt 669.291 196.85
f 63/160/4 61/159/4 62/162/4

g Mesh9 Model

v 19 5 -0.1
v 19 4.5 -0
v 19 5 -0
f 65/101/8 66/96/8 67/93/8

v 19 4.5 -0.1
f 66/96/8 65/101/8 68/102/8

vt -748.031 196.85
v 22.5 4.5 -0.1
vt -885.827 177.165
vt -748.031 177.165
f 65/163/2 69/164/2 68/165/2

v 22.5 5 -0.1
vt -885.827 196.85
f 69/164/2 65/163/2 70/166/2

vt 748.031 3.93701
v 22.5 5 -0
vt 885.827 0
vt 885.827 3.93701
f 65/167/7 71/168/7 70/169/7

vt 748.031 0
f 71/168/7 65/167/7 67/170/7

vt 748.031 177.165
vt 885.827 196.85
vt 748.031 196.85
f 66/171/4 71/172/4 67/173/4

v 22.5 4.5 -0
vt 885.827 177.165
f 71/172/4 66/171/4 72/174/4

vt -748.031 0
vt -885.827 3.93701
vt -885.827 0
f 66/175/5 69/176/5 72/177/5

vt -748.031 3.93701
f 69/176/5 66/175/5 68/178/5

f 69/94/6 71/93/6 72/96/6

f 71/93/6 69/94/6 70/95/6

