# Alias OBJ Model File
# Exported from SketchUp, (c) 2000-2012 Trimble Navigation Limited
# File units = meters

mtllib lvl1_death.mtl

g Mesh1 Model

usemtl FrontColor
v 11 1 -0
vt -433.071 39.3701
vn 0 0 -1
v 12 0.5 -0
vt -472.441 19.685
v 11 0.5 -0
vt -433.071 19.685
f 1/1/1 2/2/1 3/3/1

v 12 1 -0
vt -472.441 39.3701
f 2/2/1 1/1/1 4/4/1

vt 472.441 0
vn 0 1 -0
v 11 1 -0.1
vt 433.071 3.93701
vt 433.071 0
f 4/5/2 5/6/2 1/7/2

v 12 1 -0.1
vt 472.441 3.93701
f 5/6/2 4/5/2 6/8/2

vt 0 39.3701
vn 1 0 -0
v 12 0.5 -0.1
vt 3.93701 19.685
vt 3.93701 39.3701
f 4/9/3 7/10/3 6/11/3

vt 0 19.685
f 7/10/3 4/9/3 2/12/3

vt -433.071 0
vn 0 -1 -0
vt -472.441 3.93701
vt -472.441 0
f 3/13/4 7/14/4 2/15/4

v 11 0.5 -0.1
vt -433.071 3.93701
f 7/14/4 3/13/4 8/16/4

vn -1 0 -0
vt -3.93701 39.3701
vt -3.93701 19.685
f 3/12/5 5/17/5 8/18/5

f 5/17/5 3/12/5 1/9/5

f 5/1/1 7/2/1 8/3/1

f 7/2/1 5/1/1 6/4/1

