^D:\UOC\TFG\PROJECTE\NOMINAL\LIBS\GLEW32S.LIB|D:\UOC\TFG\PROJECTE\NOMINAL\LIBS\GLFW3.LIB|D:\UOC\TFG\PROJECTE\NOMINAL\LIBS\GLFW3DLL.LIB|D:\UOC\TFG\PROJECTE\NOMINAL\LIBS\GLUT.LIB|D:\UOC\TFG\PROJECTE\NOMINAL\LIBS\GLUT32.LIB|D:\UOC\TFG\PROJECTE\NOMINAL\LIBS\SOIL.LIB|D:\UOC\TFG\PROJECTE\NOMINAL\RELEASE\DEATHSURFACE.OBJ|D:\UOC\TFG\PROJECTE\NOMINAL\RELEASE\HUD.OBJ|D:\UOC\TFG\PROJECTE\NOMINAL\RELEASE\LEVEL.OBJ|D:\UOC\TFG\PROJECTE\NOMINAL\RELEASE\MAIN.OBJ|D:\UOC\TFG\PROJECTE\NOMINAL\RELEASE\MATHHELPER.OBJ|D:\UOC\TFG\PROJECTE\NOMINAL\RELEASE\PHYSICS.OBJ|D:\UOC\TFG\PROJECTE\NOMINAL\RELEASE\PLATFORM.OBJ|D:\UOC\TFG\PROJECTE\NOMINAL\RELEASE\PLAYER.OBJ|D:\UOC\TFG\PROJECTE\NOMINAL\RELEASE\RENDERER.OBJ|D:\UOC\TFG\PROJECTE\NOMINAL\RELEASE\SCENEMANAGER.OBJ|D:\UOC\TFG\PROJECTE\NOMINAL\RELEASE\SHADER.OBJ|D:\UOC\TFG\PROJECTE\NOMINAL\RELEASE\TRIANGLE.OBJ
D:\UOC\TFG\PROJECTE\RELEASE\THERESTIME.EXE
D:\UOC\TFG\PROJECTE\RELEASE\THERESTIME.IPDB
D:\UOC\TFG\PROJECTE\RELEASE\THERESTIME.IOBJ
D:\UOC\TFG\PROJECTE\RELEASE\THERESTIME.PDB
