# Alias OBJ Model File
# Exported from SketchUp, (c) 2000-2012 Trimble Navigation Limited
# File units = meters

mtllib level12_ds.mtl

g Mesh1 Model

usemtl FrontColor
v 5.5 1.5 -0
vt 216.535 59.0551
vn 0 0 1
v 5 1 -0
vt 196.85 39.3701
v 5.5 1 -0
vt 216.535 39.3701
f 1/1/1 2/2/1 3/3/1

v 5 1.5 -0
vt 196.85 59.0551
f 2/2/1 1/1/1 4/4/1

vt 216.535 0
vn 0 1 -0
v 5 1.5 -0.1
vt 196.85 3.93701
vt 196.85 0
f 1/5/2 5/6/2 4/7/2

v 5.5 1.5 -0.1
vt 216.535 3.93701
f 5/6/2 1/5/2 6/8/2

vt 0 59.0551
vn 1 0 -0
v 5.5 1 -0.1
vt 3.93701 39.3701
vt 3.93701 59.0551
f 1/9/3 7/10/3 6/11/3

vt 0 39.3701
f 7/10/3 1/9/3 3/12/3

vt -196.85 0
vn 0 -1 -0
vt -216.535 3.93701
vt -216.535 0
f 2/13/4 7/14/4 3/15/4

v 5 1 -0.1
vt -196.85 3.93701
f 7/14/4 2/13/4 8/16/4

vn -1 0 -0
vt -3.93701 59.0551
vt -3.93701 39.3701
f 2/12/5 5/17/5 8/18/5

f 5/17/5 2/12/5 4/9/5

vt -196.85 59.0551
vn 0 0 -1
vt -216.535 39.3701
vt -196.85 39.3701
f 5/19/6 7/20/6 8/21/6

vt -216.535 59.0551
f 7/20/6 5/19/6 6/22/6

g Mesh2 Model

v 6.5 2.5 -0
vt 255.906 98.4252
v 6 2 -0
vt 236.22 78.7402
v 6.5 2 -0
vt 255.906 78.7402
f 9/23/1 10/24/1 11/25/1

v 6 2.5 -0
vt 236.22 98.4252
f 10/24/1 9/23/1 12/26/1

vt 255.906 0
v 6 2.5 -0.1
vt 236.22 3.93701
vt 236.22 0
f 9/27/2 13/28/2 12/29/2

v 6.5 2.5 -0.1
vt 255.906 3.93701
f 13/28/2 9/27/2 14/30/2

vt 0 98.4252
v 6.5 2 -0.1
vt 3.93701 78.7402
vt 3.93701 98.4252
f 9/31/3 15/32/3 14/33/3

vt 0 78.7402
f 15/32/3 9/31/3 11/34/3

vt -236.22 0
vt -255.906 3.93701
vt -255.906 0
f 10/35/4 15/36/4 11/37/4

v 6 2 -0.1
vt -236.22 3.93701
f 15/36/4 10/35/4 16/38/4

vt -3.93701 98.4252
vt -3.93701 78.7402
f 10/34/5 13/39/5 16/40/5

f 13/39/5 10/34/5 12/31/5

vt -236.22 98.4252
vt -255.906 78.7402
vt -236.22 78.7402
f 13/41/6 15/42/6 16/43/6

vt -255.906 98.4252
f 15/42/6 13/41/6 14/44/6

g Mesh3 Model

v 7.5 3.5 -0
vt 295.276 137.795
v 7 3 -0
vt 275.591 118.11
v 7.5 3 -0
vt 295.276 118.11
f 17/45/1 18/46/1 19/47/1

v 7 3.5 -0
vt 275.591 137.795
f 18/46/1 17/45/1 20/48/1

vt 295.276 0
v 7 3.5 -0.1
vt 275.591 3.93701
vt 275.591 0
f 17/49/2 21/50/2 20/51/2

v 7.5 3.5 -0.1
vt 295.276 3.93701
f 21/50/2 17/49/2 22/52/2

vt 0 137.795
v 7.5 3 -0.1
vt 3.93701 118.11
vt 3.93701 137.795
f 17/53/3 23/54/3 22/55/3

vt 0 118.11
f 23/54/3 17/53/3 19/56/3

vt -275.591 0
vt -295.276 3.93701
vt -295.276 0
f 18/57/4 23/58/4 19/59/4

v 7 3 -0.1
vt -275.591 3.93701
f 23/58/4 18/57/4 24/60/4

vt -3.93701 137.795
vt -3.93701 118.11
f 18/56/5 21/61/5 24/62/5

f 21/61/5 18/56/5 20/53/5

vt -275.591 137.795
vt -295.276 118.11
vt -275.591 118.11
f 21/63/6 23/64/6 24/65/6

vt -295.276 137.795
f 23/64/6 21/63/6 22/66/6

g Mesh4 Model

v 12 5 -0.1
vt -472.441 196.85
v 13 4.5 -0.1
vt -511.811 177.165
v 12 4.5 -0.1
vt -472.441 177.165
f 25/67/6 26/68/6 27/69/6

v 13 5 -0.1
vt -511.811 196.85
f 26/68/6 25/67/6 28/70/6

vt 472.441 3.93701
v 13 5 7.21911e-016
vt 511.811 -2.84217e-014
vt 511.811 3.93701
f 25/71/2 29/72/2 28/73/2

v 12 5 7.21911e-016
vt 472.441 -2.84217e-014
f 29/72/2 25/71/2 30/74/2

vt -3.93701 196.85
v 12 4.5 7.21911e-016
vt 2.84217e-014 177.165
vt 2.84217e-014 196.85
f 25/75/5 31/76/5 30/77/5

vt -3.93701 177.165
f 31/76/5 25/75/5 27/78/5

vt -511.811 3.93701
vt -472.441 -2.84217e-014
vt -472.441 3.93701
f 26/79/4 31/80/4 27/81/4

v 13 4.5 7.21911e-016
vt -511.811 -2.84217e-014
f 31/80/4 26/79/4 32/82/4

vt 3.93701 177.165
vt -2.84217e-014 196.85
vt -2.84217e-014 177.165
f 26/83/3 29/84/3 32/85/3

vt 3.93701 196.85
f 29/84/3 26/83/3 28/86/3

vt 511.811 196.85
vt 472.441 177.165
vt 511.811 177.165
f 29/87/1 31/88/1 32/89/1

vt 472.441 196.85
f 31/88/1 29/87/1 30/90/1

g Mesh5 Model

v 14 5 -0.1
vt -551.181 196.85
v 15 4.5 -0.1
vt -590.551 177.165
v 14 4.5 -0.1
vt -551.181 177.165
f 33/91/6 34/92/6 35/93/6

v 15 5 -0.1
vt -590.551 196.85
f 34/92/6 33/91/6 36/94/6

vt 551.181 3.93701
v 15 5 -4.51195e-016
vt 590.551 1.77636e-014
vt 590.551 3.93701
f 33/95/2 37/96/2 36/97/2

v 14 5 -4.51195e-016
vt 551.181 1.77636e-014
f 37/96/2 33/95/2 38/98/2

v 14 4.5 -4.51195e-016
vt -1.77636e-014 177.165
vt -1.77636e-014 196.85
f 33/75/5 39/99/5 38/100/5

f 39/99/5 33/75/5 35/78/5

vt -590.551 3.93701
vt -551.181 1.77636e-014
vt -551.181 3.93701
f 34/101/4 39/102/4 35/103/4

v 15 4.5 -4.51195e-016
vt -590.551 1.77636e-014
f 39/102/4 34/101/4 40/104/4

vt 1.77636e-014 196.85
vt 1.77636e-014 177.165
f 34/83/3 37/105/3 40/106/3

f 37/105/3 34/83/3 36/86/3

vt 590.551 196.85
vt 551.181 177.165
vt 590.551 177.165
f 37/107/1 39/108/1 40/109/1

vt 551.181 196.85
f 39/108/1 37/107/1 38/110/1

g Mesh6 Model

v 16 5 -0.1
vt -629.921 196.85
v 17 4.5 -0.1
vt -669.291 177.165
v 16 4.5 -0.1
vt -629.921 177.165
f 41/111/6 42/112/6 43/113/6

v 17 5 -0.1
vt -669.291 196.85
f 42/112/6 41/111/6 44/114/6

vt 629.921 3.93701
v 17 5 -7.21911e-016
vt 669.291 2.84217e-014
vt 669.291 3.93701
f 41/115/2 45/116/2 44/117/2

v 16 5 -7.21911e-016
vt 629.921 2.84217e-014
f 45/116/2 41/115/2 46/118/2

v 16 4.5 -7.21911e-016
f 41/75/5 47/85/5 46/84/5

f 47/85/5 41/75/5 43/78/5

vt -669.291 3.93701
vt -629.921 2.84217e-014
vt -629.921 3.93701
f 42/119/4 47/120/4 43/121/4

v 17 4.5 -7.21911e-016
vt -669.291 2.84217e-014
f 47/120/4 42/119/4 48/122/4

f 42/83/3 45/77/3 48/76/3

f 45/77/3 42/83/3 44/86/3

vt 669.291 196.85
vt 629.921 177.165
vt 669.291 177.165
f 45/123/1 47/124/1 48/125/1

vt 629.921 196.85
f 47/124/1 45/123/1 46/126/1

g Mesh7 Model

v 8 4.5 -0.1
vt -314.961 177.165
vn 7.21911e-016 7.21911e-016 -1
v 8.5 4 -0.1
vt -334.646 157.48
v 8 4 -0.1
vt -314.961 157.48
f 49/127/7 50/128/7 51/129/7

v 8.5 4.5 -0.1
vt -334.646 177.165
f 50/128/7 49/127/7 52/130/7

vt 314.961 3.93701
v 8.5 4.5 -0
vt 334.646 0
vt 334.646 3.93701
f 49/131/2 53/132/2 52/133/2

v 8 4.5 -0
vt 314.961 0
f 53/132/2 49/131/2 54/134/2

v 8 4 -0
vt 0 157.48
vt 0 177.165
f 49/78/5 55/135/5 54/136/5

vt -3.93701 157.48
f 55/135/5 49/78/5 51/137/5

vt -334.646 3.93701
vt -314.961 0
vt -314.961 3.93701
f 50/138/4 55/139/4 51/140/4

v 8.5 4 -0
vt -334.646 0
f 55/139/4 50/138/4 56/141/4

vt 3.93701 157.48
f 50/142/3 53/136/3 56/135/3

f 53/136/3 50/142/3 52/83/3

vt 334.646 177.165
vt 314.961 157.48
vt 334.646 157.48
f 53/143/1 55/144/1 56/145/1

vt 314.961 177.165
f 55/144/1 53/143/1 54/146/1

g Mesh8 Model

v 19 4.5 -0.1
vt -748.031 3.93701
v 18 4.5 -9.92628e-016
vt -708.661 3.90799e-014
v 18 4.5 -0.1
vt -708.661 3.93701
f 57/147/4 58/148/4 59/149/4

v 19 4.5 -0
vt -748.031 0
f 58/148/4 57/147/4 60/150/4

v 19 5 -0
vt 0 196.85
f 57/83/3 61/151/3 60/136/3

v 19 5 -0.1
f 61/151/3 57/83/3 62/86/3

vt -748.031 177.165
vn 2.70717e-016 0 -1
v 18 5 -0.1
vt -708.661 196.85
vt -748.031 196.85
f 57/152/8 63/153/8 62/154/8

vt -708.661 177.165
f 63/153/8 57/152/8 59/155/8

vt -3.90799e-014 177.165
f 58/156/5 63/75/5 59/78/5

v 18 5 -9.92628e-016
vt -3.90799e-014 196.85
f 63/75/5 58/156/5 64/157/5

vt 708.661 177.165
vn -9.92628e-016 0 1
vt 748.031 196.85
vt 708.661 196.85
f 58/158/9 61/159/9 64/160/9

vt 748.031 177.165
f 61/159/9 58/158/9 60/161/9

vt 748.031 0
vt 708.661 3.93701
vt 708.661 3.90799e-014
f 61/162/2 63/163/2 64/164/2

vt 748.031 3.93701
f 63/163/2 61/162/2 62/165/2

